{
    "data": {
        "Page": {
            "pageInfo": {
                "total": 5000,
                "currentPage": 1,
                "lastPage": 1666,
                "hasNextPage": true,
                "perPage": 3
            },
            "media": [{
                "id": 30013,
                "title": {
                    "romaji": "ONE PIECE"
                },
                "episodes": null,
                "popularity": 104083
            }, {
                "id": 21,
                "title": {
                    "romaji": "ONE PIECE"
                },
                "episodes": null,
                "popularity": 329914
            }, {
                "id": 95552,
                "title": {
                    "romaji": "Wan Piece"
                },
                "episodes": null,
                "popularity": 116
            }]
        }
    }
}